Lecture 13 Maximum likelihood estimation and linear regression | Computational Math Camp
…
These three observations mostly influenced the precision of the estimates (i.e. standard errors), not the accuracy of them

13.5 Non-normally distributed errors

Recall that OLS assumes errors are distributed normally:

\[\epsilon_i | X_i \sim N(0, \sigma^2)\]

However according to the central limit theorem, inference based on the least-squares estimator is approximately valid under broad conditions.24 So while the validity of the estimates is robust to violating this assumption, the efficiency of the estimates is not robust. Recall that efficiency guarantees us the smallest possible sampling variance and therefore the smallest possible mean squared error (MSE). Heavy-tailed or skewed distributions of the errors will therefore give rise to outliers (which we just recognized as a problem). Alternatively, we interpret the least-squares fit as a conditional mean \(Y | X\). But arithmetic means are not good measures of the center of a highly skewed distribution.

13.5.1 Detecting non-normally distributed errors

Graphical interpretations are easiest to detect non-normality in the errors. Consider a regression model using survey data from the 1994 wave of Statistics Canada’s Survey of Labour and Income Dynamics (SLID), explaining hourly wages as an outcome of sex, education, and age:

## # A tibble: 3,997 × 4
##      age sex    compositeHourlyWages yearsEducation
##    <dbl> <chr>                 <dbl>          <dbl>
##  1    40 Male                  10.6              15
##  2    19 Male                  11                13
##  3    46 Male                  17.8              14
##  4    50 Female                14                16
##  5    31 Male                   8.2              15
##  6    30 Female                17.0              13
##  7    61 Female                 6.7              12
##  8    46 Female                14                14
##  9    43 Male                  19.2              18
## 10    17 Male                   7.25             11
## # … with 3,987 more rows
…
